E:\atlassianlabs-atlassian-oauth-examples-dd0264cad043\java\src\main\java\com\atlassian\oauth\client\example\PropertiesClient.java
E:\atlassianlabs-atlassian-oauth-examples-dd0264cad043\java\src\main\java\com\atlassian\oauth\client\example\JiraOAuthClient.java
E:\atlassianlabs-atlassian-oauth-examples-dd0264cad043\java\src\main\java\com\atlassian\oauth\client\example\ClientMain.java
E:\atlassianlabs-atlassian-oauth-examples-dd0264cad043\java\src\main\java\com\atlassian\oauth\client\example\Command.java
E:\atlassianlabs-atlassian-oauth-examples-dd0264cad043\java\src\main\java\com\atlassian\oauth\client\example\JiraOAuthGetTemporaryToken.java
E:\atlassianlabs-atlassian-oauth-examples-dd0264cad043\java\src\main\java\com\atlassian\oauth\client\example\JiraOAuthTokenFactory.java
E:\atlassianlabs-atlassian-oauth-examples-dd0264cad043\java\src\main\java\com\atlassian\oauth\client\example\OAuthClient.java
E:\atlassianlabs-atlassian-oauth-examples-dd0264cad043\java\src\main\java\com\atlassian\oauth\client\example\JiraOAuthGetAccessToken.java
